{
  "configVersion": 2,
  "packages": [
    {
      "name": "adobe_xd",
      "rootUri": "file:///D:/flutter/.pub-cache/hosted/pub.dartlang.org/adobe_xd-2.0.0+1",
      "packageUri": "lib/",
      "languageVersion": "2.12"
    },
    {
      "name": "args",
      "rootUri": "file:///D:/flutter/.pub-cache/hosted/pub.dartlang.org/args-2.3.0",
      "packageUri": "lib/",
      "languageVersion": "2.12"
    },
    {
      "name": "async",
      "rootUri": "file:///D:/flutter/.pub-cache/hosted/pub.dartlang.org/async-2.8.1",
      "packageUri": "lib/",
      "languageVersion": "2.12"
    },
    {
      "name": "boolean_selector",
      "rootUri": "file:///D:/flutter/.pub-cache/hosted/pub.dartlang.org/boolean_selector-2.1.0",
      "packageUri": "lib/",
      "languageVersion": "2.12"
    },
    {
      "name": "characters",
      "rootUri": "file:///D:/flutter/.pub-cache/hosted/pub.dartlang.org/characters-1.1.0",
      "packageUri": "lib/",
      "languageVersion": "2.12"
    },
    {
      "name": "charcode",
      "rootUri": "file:///D:/flutter/.pub-cache/hosted/pub.dartlang.org/charcode-1.3.1",
      "packageUri": "lib/",
      "languageVersion": "2.12"
    },
    {
      "name": "clock",
      "rootUri": "file:///D:/flutter/.pub-cache/hosted/pub.dartlang.org/clock-1.1.0",
      "packageUri": "lib/",
      "languageVersion": "2.12"
    },
    {
      "name": "collection",
      "rootUri": "file:///D:/flutter/.pub-cache/hosted/pub.dartlang.org/collection-1.15.0",
      "packageUri": "lib/",
      "languageVersion": "2.12"
    },
    {
      "name": "cross_file",
      "rootUri": "file:///D:/flutter/.pub-cache/hosted/pub.dartlang.org/cross_file-0.3.2",
      "packageUri": "lib/",
      "languageVersion": "2.12"
    },
    {
      "name": "cupertino_icons",
      "rootUri": "file:///D:/flutter/.pub-cache/hosted/pub.dartlang.org/cupertino_icons-1.0.4",
      "packageUri": "lib/",
      "languageVersion": "2.12"
    },
    {
      "name": "dbus",
      "rootUri": "file:///D:/flutter/.pub-cache/hosted/pub.dartlang.org/dbus-0.6.6",
      "packageUri": "lib/",
      "languageVersion": "2.12"
    },
    {
      "name": "fake_async",
      "rootUri": "file:///D:/flutter/.pub-cache/hosted/pub.dartlang.org/fake_async-1.2.0",
      "packageUri": "lib/",
      "languageVersion": "2.12"
    },
    {
      "name": "ffi",
      "rootUri": "file:///D:/flutter/.pub-cache/hosted/pub.dartlang.org/ffi-1.1.2",
      "packageUri": "lib/",
      "languageVersion": "2.12"
    },
    {
      "name": "file",
      "rootUri": "file:///D:/flutter/.pub-cache/hosted/pub.dartlang.org/file-6.1.2",
      "packageUri": "lib/",
      "languageVersion": "2.12"
    },
    {
      "name": "firebase_analytics",
      "rootUri": "file:///D:/flutter/.pub-cache/hosted/pub.dartlang.org/firebase_analytics-9.0.4",
      "packageUri": "lib/",
      "languageVersion": "2.12"
    },
    {
      "name": "firebase_analytics_platform_interface",
      "rootUri": "file:///D:/flutter/.pub-cache/hosted/pub.dartlang.org/firebase_analytics_platform_interface-3.0.3",
      "packageUri": "lib/",
      "languageVersion": "2.12"
    },
    {
      "name": "firebase_analytics_web",
      "rootUri": "file:///D:/flutter/.pub-cache/hosted/pub.dartlang.org/firebase_analytics_web-0.4.0+4",
      "packageUri": "lib/",
      "languageVersion": "2.12"
    },
    {
      "name": "firebase_auth",
      "rootUri": "file:///D:/flutter/.pub-cache/hosted/pub.dartlang.org/firebase_auth-3.3.3",
      "packageUri": "lib/",
      "languageVersion": "2.12"
    },
    {
      "name": "firebase_auth_platform_interface",
      "rootUri": "file:///D:/flutter/.pub-cache/hosted/pub.dartlang.org/firebase_auth_platform_interface-6.1.8",
      "packageUri": "lib/",
      "languageVersion": "2.12"
    },
    {
      "name": "firebase_auth_web",
      "rootUri": "file:///D:/flutter/.pub-cache/hosted/pub.dartlang.org/firebase_auth_web-3.3.4",
      "packageUri": "lib/",
      "languageVersion": "2.12"
    },
    {
      "name": "firebase_core",
      "rootUri": "file:///D:/flutter/.pub-cache/hosted/pub.dartlang.org/firebase_core-1.10.5",
      "packageUri": "lib/",
      "languageVersion": "2.12"
    },
    {
      "name": "firebase_core_platform_interface",
      "rootUri": "file:///D:/flutter/.pub-cache/hosted/pub.dartlang.org/firebase_core_platform_interface-4.2.3",
      "packageUri": "lib/",
      "languageVersion": "2.12"
    },
    {
      "name": "firebase_core_web",
      "rootUri": "file:///D:/flutter/.pub-cache/hosted/pub.dartlang.org/firebase_core_web-1.5.3",
      "packageUri": "lib/",
      "languageVersion": "2.12"
    },
    {
      "name": "firebase_messaging",
      "rootUri": "file:///D:/flutter/.pub-cache/hosted/pub.dartlang.org/firebase_messaging-11.2.3",
      "packageUri": "lib/",
      "languageVersion": "2.12"
    },
    {
      "name": "firebase_messaging_platform_interface",
      "rootUri": "file:///D:/flutter/.pub-cache/hosted/pub.dartlang.org/firebase_messaging_platform_interface-3.1.3",
      "packageUri": "lib/",
      "languageVersion": "2.12"
    },
    {
      "name": "firebase_messaging_web",
      "rootUri": "file:///D:/flutter/.pub-cache/hosted/pub.dartlang.org/firebase_messaging_web-2.2.4",
      "packageUri": "lib/",
      "languageVersion": "2.12"
    },
    {
      "name": "flutter",
      "rootUri": "file:///D:/flutter/packages/flutter",
      "packageUri": "lib/",
      "languageVersion": "2.12"
    },
    {
      "name": "flutter_lints",
      "rootUri": "file:///D:/flutter/.pub-cache/hosted/pub.dartlang.org/flutter_lints-1.0.4",
      "packageUri": "lib/",
      "languageVersion": "2.12"
    },
    {
      "name": "flutter_local_notifications",
      "rootUri": "file:///D:/flutter/.pub-cache/hosted/pub.dartlang.org/flutter_local_notifications-9.1.5",
      "packageUri": "lib/",
      "languageVersion": "2.12"
    },
    {
      "name": "flutter_local_notifications_linux",
      "rootUri": "file:///D:/flutter/.pub-cache/hosted/pub.dartlang.org/flutter_local_notifications_linux-0.4.0",
      "packageUri": "lib/",
      "languageVersion": "2.12"
    },
    {
      "name": "flutter_local_notifications_platform_interface",
      "rootUri": "file:///D:/flutter/.pub-cache/hosted/pub.dartlang.org/flutter_local_notifications_platform_interface-5.0.0",
      "packageUri": "lib/",
      "languageVersion": "2.12"
    },
    {
      "name": "flutter_plugin_android_lifecycle",
      "rootUri": "file:///D:/flutter/.pub-cache/hosted/pub.dartlang.org/flutter_plugin_android_lifecycle-2.0.5",
      "packageUri": "lib/",
      "languageVersion": "2.12"
    },
    {
      "name": "flutter_svg",
      "rootUri": "file:///D:/flutter/.pub-cache/hosted/pub.dartlang.org/flutter_svg-0.21.0+1",
      "packageUri": "lib/",
      "languageVersion": "2.12"
    },
    {
      "name": "flutter_test",
      "rootUri": "file:///D:/flutter/packages/flutter_test",
      "packageUri": "lib/",
      "languageVersion": "2.12"
    },
    {
      "name": "flutter_web_plugins",
      "rootUri": "file:///D:/flutter/packages/flutter_web_plugins",
      "packageUri": "lib/",
      "languageVersion": "2.12"
    },
    {
      "name": "geolocator",
      "rootUri": "file:///D:/flutter/.pub-cache/hosted/pub.dartlang.org/geolocator-8.0.1",
      "packageUri": "lib/",
      "languageVersion": "2.12"
    },
    {
      "name": "geolocator_android",
      "rootUri": "file:///D:/flutter/.pub-cache/hosted/pub.dartlang.org/geolocator_android-3.0.1",
      "packageUri": "lib/",
      "languageVersion": "2.12"
    },
    {
      "name": "geolocator_apple",
      "rootUri": "file:///D:/flutter/.pub-cache/hosted/pub.dartlang.org/geolocator_apple-2.0.0+2",
      "packageUri": "lib/",
      "languageVersion": "2.12"
    },
    {
      "name": "geolocator_platform_interface",
      "rootUri": "file:///D:/flutter/.pub-cache/hosted/pub.dartlang.org/geolocator_platform_interface-3.0.1",
      "packageUri": "lib/",
      "languageVersion": "2.12"
    },
    {
      "name": "geolocator_web",
      "rootUri": "file:///D:/flutter/.pub-cache/hosted/pub.dartlang.org/geolocator_web-2.1.1",
      "packageUri": "lib/",
      "languageVersion": "2.12"
    },
    {
      "name": "google_maps_flutter",
      "rootUri": "file:///D:/flutter/.pub-cache/hosted/pub.dartlang.org/google_maps_flutter-2.1.1",
      "packageUri": "lib/",
      "languageVersion": "2.14"
    },
    {
      "name": "google_maps_flutter_platform_interface",
      "rootUri": "file:///D:/flutter/.pub-cache/hosted/pub.dartlang.org/google_maps_flutter_platform_interface-2.1.3",
      "packageUri": "lib/",
      "languageVersion": "2.12"
    },
    {
      "name": "http",
      "rootUri": "file:///D:/flutter/.pub-cache/hosted/pub.dartlang.org/http-0.13.4",
      "packageUri": "lib/",
      "languageVersion": "2.14"
    },
    {
      "name": "http_parser",
      "rootUri": "file:///D:/flutter/.pub-cache/hosted/pub.dartlang.org/http_parser-4.0.0",
      "packageUri": "lib/",
      "languageVersion": "2.12"
    },
    {
      "name": "image_picker",
      "rootUri": "file:///D:/flutter/.pub-cache/hosted/pub.dartlang.org/image_picker-0.8.4+4",
      "packageUri": "lib/",
      "languageVersion": "2.14"
    },
    {
      "name": "image_picker_for_web",
      "rootUri": "file:///D:/flutter/.pub-cache/hosted/pub.dartlang.org/image_picker_for_web-2.1.4",
      "packageUri": "lib/",
      "languageVersion": "2.12"
    },
    {
      "name": "image_picker_platform_interface",
      "rootUri": "file:///D:/flutter/.pub-cache/hosted/pub.dartlang.org/image_picker_platform_interface-2.4.1",
      "packageUri": "lib/",
      "languageVersion": "2.12"
    },
    {
      "name": "intl",
      "rootUri": "file:///D:/flutter/.pub-cache/hosted/pub.dartlang.org/intl-0.17.0",
      "packageUri": "lib/",
      "languageVersion": "2.12"
    },
    {
      "name": "js",
      "rootUri": "file:///D:/flutter/.pub-cache/hosted/pub.dartlang.org/js-0.6.3",
      "packageUri": "lib/",
      "languageVersion": "2.12"
    },
    {
      "name": "lints",
      "rootUri": "file:///D:/flutter/.pub-cache/hosted/pub.dartlang.org/lints-1.0.1",
      "packageUri": "lib/",
      "languageVersion": "2.12"
    },
    {
      "name": "matcher",
      "rootUri": "file:///D:/flutter/.pub-cache/hosted/pub.dartlang.org/matcher-0.12.10",
      "packageUri": "lib/",
      "languageVersion": "2.12"
    },
    {
      "name": "meta",
      "rootUri": "file:///D:/flutter/.pub-cache/hosted/pub.dartlang.org/meta-1.7.0",
      "packageUri": "lib/",
      "languageVersion": "2.12"
    },
    {
      "name": "nested",
      "rootUri": "file:///D:/flutter/.pub-cache/hosted/pub.dartlang.org/nested-1.0.0",
      "packageUri": "lib/",
      "languageVersion": "2.12"
    },
    {
      "name": "path",
      "rootUri": "file:///D:/flutter/.pub-cache/hosted/pub.dartlang.org/path-1.8.0",
      "packageUri": "lib/",
      "languageVersion": "2.12"
    },
    {
      "name": "path_drawing",
      "rootUri": "file:///D:/flutter/.pub-cache/hosted/pub.dartlang.org/path_drawing-0.5.1+1",
      "packageUri": "lib/",
      "languageVersion": "2.12"
    },
    {
      "name": "path_parsing",
      "rootUri": "file:///D:/flutter/.pub-cache/hosted/pub.dartlang.org/path_parsing-0.2.1",
      "packageUri": "lib/",
      "languageVersion": "2.12"
    },
    {
      "name": "path_provider_linux",
      "rootUri": "file:///D:/flutter/.pub-cache/hosted/pub.dartlang.org/path_provider_linux-2.1.2",
      "packageUri": "lib/",
      "languageVersion": "2.12"
    },
    {
      "name": "path_provider_platform_interface",
      "rootUri": "file:///D:/flutter/.pub-cache/hosted/pub.dartlang.org/path_provider_platform_interface-2.0.1",
      "packageUri": "lib/",
      "languageVersion": "2.12"
    },
    {
      "name": "path_provider_windows",
      "rootUri": "file:///D:/flutter/.pub-cache/hosted/pub.dartlang.org/path_provider_windows-2.0.4",
      "packageUri": "lib/",
      "languageVersion": "2.12"
    },
    {
      "name": "petitparser",
      "rootUri": "file:///D:/flutter/.pub-cache/hosted/pub.dartlang.org/petitparser-4.4.0",
      "packageUri": "lib/",
      "languageVersion": "2.14"
    },
    {
      "name": "platform",
      "rootUri": "file:///D:/flutter/.pub-cache/hosted/pub.dartlang.org/platform-3.1.0",
      "packageUri": "lib/",
      "languageVersion": "2.12"
    },
    {
      "name": "plugin_platform_interface",
      "rootUri": "file:///D:/flutter/.pub-cache/hosted/pub.dartlang.org/plugin_platform_interface-2.0.2",
      "packageUri": "lib/",
      "languageVersion": "2.12"
    },
    {
      "name": "process",
      "rootUri": "file:///D:/flutter/.pub-cache/hosted/pub.dartlang.org/process-4.2.4",
      "packageUri": "lib/",
      "languageVersion": "2.14"
    },
    {
      "name": "provider",
      "rootUri": "file:///D:/flutter/.pub-cache/hosted/pub.dartlang.org/provider-6.0.1",
      "packageUri": "lib/",
      "languageVersion": "2.12"
    },
    {
      "name": "shared_preferences",
      "rootUri": "file:///D:/flutter/.pub-cache/hosted/pub.dartlang.org/shared_preferences-2.0.9",
      "packageUri": "lib/",
      "languageVersion": "2.14"
    },
    {
      "name": "shared_preferences_android",
      "rootUri": "file:///D:/flutter/.pub-cache/hosted/pub.dartlang.org/shared_preferences_android-2.0.9",
      "packageUri": "lib/",
      "languageVersion": "2.14"
    },
    {
      "name": "shared_preferences_ios",
      "rootUri": "file:///D:/flutter/.pub-cache/hosted/pub.dartlang.org/shared_preferences_ios-2.0.8",
      "packageUri": "lib/",
      "languageVersion": "2.14"
    },
    {
      "name": "shared_preferences_linux",
      "rootUri": "file:///D:/flutter/.pub-cache/hosted/pub.dartlang.org/shared_preferences_linux-2.0.3",
      "packageUri": "lib/",
      "languageVersion": "2.12"
    },
    {
      "name": "shared_preferences_macos",
      "rootUri": "file:///D:/flutter/.pub-cache/hosted/pub.dartlang.org/shared_preferences_macos-2.0.2",
      "packageUri": "lib/",
      "languageVersion": "2.12"
    },
    {
      "name": "shared_preferences_platform_interface",
      "rootUri": "file:///D:/flutter/.pub-cache/hosted/pub.dartlang.org/shared_preferences_platform_interface-2.0.0",
      "packageUri": "lib/",
      "languageVersion": "2.12"
    },
    {
      "name": "shared_preferences_web",
      "rootUri": "file:///D:/flutter/.pub-cache/hosted/pub.dartlang.org/shared_preferences_web-2.0.2",
      "packageUri": "lib/",
      "languageVersion": "2.12"
    },
    {
      "name": "shared_preferences_windows",
      "rootUri": "file:///D:/flutter/.pub-cache/hosted/pub.dartlang.org/shared_preferences_windows-2.0.3",
      "packageUri": "lib/",
      "languageVersion": "2.12"
    },
    {
      "name": "sky_engine",
      "rootUri": "file:///D:/flutter/bin/cache/pkg/sky_engine",
      "packageUri": "lib/",
      "languageVersion": "2.12"
    },
    {
      "name": "source_span",
      "rootUri": "file:///D:/flutter/.pub-cache/hosted/pub.dartlang.org/source_span-1.8.1",
      "packageUri": "lib/",
      "languageVersion": "2.12"
    },
    {
      "name": "stack_trace",
      "rootUri": "file:///D:/flutter/.pub-cache/hosted/pub.dartlang.org/stack_trace-1.10.0",
      "packageUri": "lib/",
      "languageVersion": "2.12"
    },
    {
      "name": "stream_channel",
      "rootUri": "file:///D:/flutter/.pub-cache/hosted/pub.dartlang.org/stream_channel-2.1.0",
      "packageUri": "lib/",
      "languageVersion": "2.12"
    },
    {
      "name": "stream_transform",
      "rootUri": "file:///D:/flutter/.pub-cache/hosted/pub.dartlang.org/stream_transform-2.0.0",
      "packageUri": "lib/",
      "languageVersion": "2.12"
    },
    {
      "name": "string_scanner",
      "rootUri": "file:///D:/flutter/.pub-cache/hosted/pub.dartlang.org/string_scanner-1.1.0",
      "packageUri": "lib/",
      "languageVersion": "2.12"
    },
    {
      "name": "term_glyph",
      "rootUri": "file:///D:/flutter/.pub-cache/hosted/pub.dartlang.org/term_glyph-1.2.0",
      "packageUri": "lib/",
      "languageVersion": "2.12"
    },
    {
      "name": "test_api",
      "rootUri": "file:///D:/flutter/.pub-cache/hosted/pub.dartlang.org/test_api-0.4.2",
      "packageUri": "lib/",
      "languageVersion": "2.12"
    },
    {
      "name": "timezone",
      "rootUri": "file:///D:/flutter/.pub-cache/hosted/pub.dartlang.org/timezone-0.8.0",
      "packageUri": "lib/",
      "languageVersion": "2.12"
    },
    {
      "name": "typed_data",
      "rootUri": "file:///D:/flutter/.pub-cache/hosted/pub.dartlang.org/typed_data-1.3.0",
      "packageUri": "lib/",
      "languageVersion": "2.12"
    },
    {
      "name": "vector_math",
      "rootUri": "file:///D:/flutter/.pub-cache/hosted/pub.dartlang.org/vector_math-2.1.0",
      "packageUri": "lib/",
      "languageVersion": "2.12"
    },
    {
      "name": "win32",
      "rootUri": "file:///D:/flutter/.pub-cache/hosted/pub.dartlang.org/win32-2.3.1",
      "packageUri": "lib/",
      "languageVersion": "2.14"
    },
    {
      "name": "xdg_directories",
      "rootUri": "file:///D:/flutter/.pub-cache/hosted/pub.dartlang.org/xdg_directories-0.2.0",
      "packageUri": "lib/",
      "languageVersion": "2.12"
    },
    {
      "name": "xml",
      "rootUri": "file:///D:/flutter/.pub-cache/hosted/pub.dartlang.org/xml-5.3.1",
      "packageUri": "lib/",
      "languageVersion": "2.14"
    },
    {
      "name": "navtaxidriver",
      "rootUri": "../",
      "packageUri": "lib/",
      "languageVersion": "2.12"
    }
  ],
  "generated": "2021-12-28T13:35:57.749276Z",
  "generator": "pub",
  "generatorVersion": "2.14.4"
}
